{
    "query": {
        "title": "Boucle de requête",
        "description": "Block requête. Crée une boucle de posts filtrée",
        "icon": "filter",
        "keywords": [],
        "js": false,
        "css": false,
        "callback": "getPostTypes"
    }
}